Hands-on Exercise 01-1 – ISSS626-yiqiong-pan
…
Rows: 3659 Columns: 18
── Column specification ────────────────────────────────────────────────────────
Delimiter: ","
chr   (6): name, host_name, neighbourhood_group, neighbourhood, room_type, l...
dbl  (11): id, host_id, latitude, longitude, price, minimum_nights, number_o...
date  (1): last_review

ℹ Use `spec()` to retrieve the full column specification for this data.
ℹ Specify the column types or set `show_col_types = FALSE` to quiet this message.

list(listings)

[[1]]
# A tibble: 3,659 × 18
       id name      host_id host_name neighbourhood_group neighbourhood latitude
    <dbl> <chr>       <dbl> <chr>     <chr>               <chr>            <dbl>
 1  71609 Ensuite …  367042 Belinda   East Region         Tampines          1.35
 2  71896 B&B  Roo…  367042 Belinda   East Region         Tampines          1.35
 3  71903 Room 2-n…  367042 Belinda   East Region         Tampines          1.35
 4 275343 10min wa… 1439258 Kay       Central Region      Bukit Merah       1.29
 5 275344 15 mins … 1439258 Kay       Central Region      Bukit Merah       1.29
 6 294281 5 mins w… 1521514 Elizabeth Central Region      Newton            1.31
 7 324945 Comforta… 1439258 Kay       Central Region      Bukit Merah       1.29
 8 330095 Relaxing… 1439258 Kay       Central Region      Bukit Merah       1.29
 9 344803 Budget s…  367042 Belinda   East Region         Tampines          1.35
10 369141 5mins fr… 1521514 Elizabeth Central Region      Newton            1.31
# ℹ 3,649 more rows
# ℹ 11 more variables: longitude <dbl>, room_type <chr>, price <dbl>,
#   minimum_nights <dbl>, number_of_reviews <dbl>, last_review <date>,
#   reviews_per_month <dbl>, calculated_host_listings_count <dbl>,
#   availability_365 <dbl>, number_of_reviews_ltm <dbl>, license <chr>
…
